{"Name":"Juris","Surname":"Priede","Age":51,"Vacation":{"Reason":"Ceļojums","StartDate":"2018-09-08T00:00:00","EndDate":"2019-09-20T00:00:00"}}
{"Name":"Jānis","Surname":"Sloka","Age":31,"Vacation":{"Reason":"Atvaļinājums","StartDate":"2019-01-10T00:00:00","EndDate":"2019-02-10T00:00:00"}}
{"Name":"Anete","Surname":"Sekace","Age":27,"Vacation":{"Reason":"Atpūta","StartDate":"2018-12-20T00:00:00","EndDate":"2019-01-10T00:00:00"}}
{"Name":"Elīza","Surname":"Aka","Age":20,"Vacation":{"Reason":"Atpūta","StartDate":"2018-12-15T00:00:00","EndDate":"2018-12-25T00:00:00"}}
{"Name":"Bredlijs","Surname":"Kūpers","Age":69,"Vacation":{"Reason":"Atpūta","StartDate":"2019-06-01T00:00:00","EndDate":"2019-08-31T00:00:00"}}
